Jeremy Soule,77yY2QmM6bYvjJ3y5L2R0v,69,artist,"scorecore,soundtrack,video game music",91541
Rogue Valley,1EbGAjTV50qpZ53jXTvmV7,38,artist,midwest americana,12048
Howard Shore,0OcclcP5o8VKH2TRqSY2A7,71,artist,"canadian classical,canadian soundtrack,middle earth,scorecore,soundtrack,video game music",350685
Bear McCreary,2ifvIECHAlEgPMBuBOJ0lG,65,artist,"scorecore,soundtrack,video game music",86538
Michael Salvatori,7Ir0wjCeuhkHUyPAfNJi2X,64,artist,"scorecore,video game music",22041
Maroon 5,04gDigrS5kc9YWfZHwBETP,91,artist,"pop,pop rock",30064760
Gavin DeGraw,5DYAABs8rkY9VhwtENoQCz,69,artist,"acoustic pop,neo mellow,pop,pop rock",1094676
Zac Brown Band,6yJCxee7QumYr820xdIsjo,77,artist,"contemporary country,country,country road,modern country rock",2574185
Glenn Stafford,0QHPo4EDeIiHCs37RRfhCM,49,artist,video game music,3871
